20 20 8
999 999 50
1 99 119
340 300 144
300 340 144
2 101 119
1 1 1
99 998 179
69 10 113
965 9843 262
2 2 2
1 1 1
5 10 20
100 200 125
201 210 89
900 1000 174
5 5 6
5 5 6
7 8 17
9 9999 262
1 10000 262
600 500 137
1000 7000 262
300 9000 262
10000 700 262
20 100 119
1 10 20
10000 10000 30
500 1 144
1 10 20
2 10 20
3 10 20
4 10 20
1 10000 262
2 10000 262
3 10000 262
4 10000 262
2180 3644 217
7864 5421 262
3234 4321 238
423 921 179
232 232 22
423 423 33
100 99 26
444 234 144
82003 23974 351
6577 65161 340
5637 56783 340
85101 8138 351
24621 52569 340
49210 4073 324
7805 7223 239
2252 4691 238
2142 2524 209
4772 47985 324
5461 4957 192
7121 7421 208
8274 8288 159
3561 3904 238
654 8444 262
9828 9459 198
8307 837 262
4572 6512 262
2254 1624 183
2347 533 183
5105 547 238
670 8513 262
9762 970 262
31962 2868 308
5695 55981 340
8101 31011 308
745 2843 209
8571 831 262
9994 998 262
5465 9880 262
786 7051 262
7805 7832 177
3174 3663 199
26 1858 182
9012 9802 260
9842 9350 198
93190 931 351
7886 787 262
919454 919499 202
575642 575716 297
915 9839 262
288 2880 209
9365 8704 260
827 827 42
85029 85034 183
73959 73760 232
80910 81018 276
94713 94143 315
45686 45019 314
72772 7271 340
7476 74566 340
4647 63724 340
94152 94673 315
77648 77598 201
5191 54243 340
2518 5672 238
953 9576 262
448 4216 238
57 5669 238
113 5943 238
7123 7433 239
36 9896 262
98265 9843 351
800 881 179
41 368 144
281 191 128
85 894 179
665 456 145
829 802 135
2791 194 209
6538 6538 45
377 3539 217
842747 844169 388
612687 612358 297
810273 809602 344
431700 431055 312
281758 283365 358
984263 984008 352
884741 885879 370
724852 724070 362
869222 869573 388
