550 651 145
1214 1411 177
1694 1888 180
1939 2135 175
2187 2685 209
2749 2906 173
3125 3233 199
4241 4653 215
4911 5455 210
5495 5846 236
6218 6410 200
6757 6761 89
6766 7252 257
8342 8652 234
8711 8828 216
8995 9357 260
9724 9942 242
10566 12308 268
12528 12650 263
12831 13961 276
14022 14080 196
14211 14216 121
14787 15301 271
15623 16480 266
16497 16754 235
16869 16905 204
17041 17065 173
17317 17386 173
17939 18142 186
18970 19408 212
19688 20181 274
20229 21291 256
21554 21796 207
21801 21989 269
22344 22717 269
22777 24169 282
24302 24579 202
24759 24766 171
25234 25839 246
26107 26467 246
26481 26544 277
26780 27731 259
28182 28653 259
28985 29045 197
29086 29368 272
29650 30127 272
30173 30386 241
30517 30805 254
31440 31504 179
31841 32483 267
32533 33031 267
33524 33919 267
33998 34178 236
34307 34653 249
34929 36467 324
36513 36634 187
36766 37135 262
37312 37678 306
37801 38234 244
38773 38878 244
38895 39597 275
39792 40053 306
40519 40631 213
40834 40902 244
41091 41364 213
41857 42187 226
42222 42236 226
42445 42595 257
43130 43473 257
43620 43924 270
43936 44761 270
44763 45197 314
45222 45402 239
45653 46141 252
46486 46659 252
46957 47381 314
48378 48607 252
48856 48927 296
49199 49289 234
49316 49498 265
49609 49660 190
50329 50744 265
51266 52094 309
52392 52645 340
52649 52695 203
54241 54382 260
55631 55900 260
56680 56971 291
56987 57161 304
57360 57750 273
58120 58417 242
58620 58969 273
59600 60195 317
61390 61525 286
61686 61723 286
62040 62069 180
62593 63008 286
63102 63689 330
64096 64821 299
65203 65642 268
65951 65999 162
66028 66575 268
66592 66641 206
66811 66862 237
68329 68803 312
68930 69016 206
69889 70060 281
70085 70172 219
70219 70384 312
70548 70911 281
71196 72380 325
72585 72678 219
72951 73220 294
73266 73731 294
74016 74081 263
74451 74489 294
74608 74790 263
74791 74838 325
74854 75342 307
76646 76831 307
76915 77411 351
77484 78224 276
78926 79386 307
79528 79873 307
80445 81339 320
81622 82030 289
82578 83031 320
83371 83483 258
84135 84236 320
85474 85750 302
85918 85943 227
85960 86304 302
86544 86644 227
87135 87862 271
88140 88183 271
88974 90592 315
91183 91264 209
91433 91456 178
92375 92991 302
93015 93413 284
93681 94097 253
94657 95108 328
95210 95369 284
95748 96134 284
96140 97505 297
97691 97861 297
98437 98463 235
98733 99018 284
99320 99489 191
99503 99789 328
1 10 20
10 1 20
10 10 7
1 1 1
100 200 125
201 210 89
900 1000 174
999999 999999 259
