................
----------------------------------------------------------------------
Ran 16 tests in 0.024s

OK
Name             Stmts   Miss Branch BrPart  Cover   Missing
------------------------------------------------------------
Collatz.py          36      0     18      0   100%
TestCollatz.py      69      0      2      0   100%
------------------------------------------------------------
TOTAL              105      0     20      0   100%
