1 10 20
100 200 125
201 210 89
900 1000 174
20 30 112
40 50 110
60 70 108
80 90 111
200 300 128
400 500 142
600 700 145
800 900 179
1100 1200 182
1201 1300 177
1301 1400 177
1401 1500 172
1501 1600 167
1601 1700 180
1701 1800 180
1801 1900 175
1901 2000 175
10001 11000 268
11001 12000 250
12001 13000 263
13001 14000 276
14001 15000 271
15001 16000 271
16001 17000 266
17001 18000 279
19001 20000 274
50000 52000 309
52001 54000 340
54001 56000 260
56001 58000 322
58001 60000 304
100000 100010 310
100000 100100 310
100000 101000 341
100000 110000 354
150000 200000 383
200001 250000 443
250001 300000 407
300001 350000 441
350001 400000 436
400001 450000 449
500001 550000 470
1 1 1
550001 600000 434
650001 700000 442
750001 800000 468
850001 900000 445
950001 999999 458
1 999999 525
837799 999999 525
32148 99034 351
38291 84735 351
88907 90823 315
52485 97421 351
227139 392726 443
968634 986189 458
776012 777365 393
343878 531163 470
561447 886705 525
749794 872796 525
849866 895130 445
3946 135295 354
597081 632916 509
97705 867300 525
170428 418555 449
522653 752793 509
367975 494058 449
203889 215025 373
31006 779840 509
876248 960414 507
846463 987168 507
17250 444300 449
933325 994657 507
930697 953216 507
608810 672180 509
281350 380243 441
94419 873571 525
953149 965430 414
3430 401461 443
184047 676670 509
61922 873333 525
427470 540889 470
555966 657227 509
754211 947654 525
142131 863127 525
117204 363016 443
746708 760386 424
669339 854992 525
440260 559941 470
792935 864387 525
384377 466709 449
436523 453688 400
942859 950811 383
560531 886356 525
525747 802147 509
445121 626720 509
735465 741772 424
26507 543413 470
995239 996444 365
218169 947465 525
578527 900268 525
818910 888802 525
581590 814002 509
574950 661971 509
179494 824153 509
636152 939846 525
308910 901967 525
901357 941649 507
665958 840409 525
840803 922982 476
695465 709236 504
142262 544083 470
52795 614436 470
244562 887236 525
